<svg width="100" height="100" viewBox="0 0 100 100" fill="none" xmlns="http://www.w3.org/2000/svg">
<rect width="100" height="100" rx="3" fill="#EDF1F5"/>
<path opacity="0.5" fill-rule="evenodd" clip-rule="evenodd" d="M3 2C2.44772 2 2 2.44772 2 3V97C2 97.5523 2.44772 98 3 98H97C97.5523 98 98 97.5523 98 97V3C98 2.44772 97.5523 2 97 2H3ZM94 6H6V94H94V6Z" fill="#C6CFDA"/>
<g opacity="0.5">
<mask id="mask0" mask-type="alpha" maskUnits="userSpaceOnUse" x="10" y="10" width="80" height="80">
<rect x="10" y="10" width="80" height="80" fill="#C6CFDA"/>
</mask>
<g mask="url(#mask0)">
<path d="M29 44L64 79L29 114L-6 79L29 44Z" fill="#C6CFDA"/>
<path d="M77 25L126 74L77 123L28 74L77 25Z" fill="#C6CFDA"/>
<circle cx="26" cy="22" r="8" fill="#C6CFDA"/>
</g>
</g>
<path opacity="0.85" fill-rule="evenodd" clip-rule="evenodd" d="M50 66C58.8366 66 66 58.8366 66 50C66 41.1634 58.8366 34 50 34C41.1634 34 34 41.1634 34 50C34 58.8366 41.1634 66 50 66ZM48 43C48 42.4477 48.4477 42 49 42H51C51.5523 42 52 42.4477 52 43V48H57C57.5523 48 58 48.4477 58 49V51C58 51.5523 57.5523 52 57 52H52V57C52 57.5523 51.5523 58 51 58H49C48.4477 58 48 57.5523 48 57V52H43C42.4477 52 42 51.5523 42 51V49C42 48.4477 42.4477 48 43 48H48V43Z" fill="#15CBC4"/>
</svg>
