<svg width="20" height="20" viewBox="0 0 20 20" fill="none" xmlns="http://www.w3.org/2000/svg">
<path d="M18.5199 0H1.47515C0.66135 0 0 0.645617 0 1.44205V18.5568C0 19.3533 0.66135 20 1.47515 20H18.5199C19.3354 20 19.9994 19.3533 19.9994 18.5568V1.44205C19.9994 0.645617 19.3354 0 18.5199 0Z" fill="#007BB5"/>
<path d="M0.235454 4.74447H3.20474V14.2887H0.235454V4.74447ZM1.72092 0C2.66981 0 3.44019 0.770671 3.44019 1.72011C3.44019 2.66982 2.66981 3.44047 1.72092 3.44047C0.768229 3.44047 0 2.66982 0 1.72011C0 0.770671 0.768225 0 1.72092 0Z" transform="translate(2.72803 2.75336)" fill="white"/>
<path d="M0 0.236834H2.84345V1.54161H2.88411C3.27961 0.79128 4.2475 0 5.69067 0C8.69411 0 9.24917 1.97622 9.24917 4.54672V9.78111H6.28311V5.13972C6.28311 4.03294 6.26411 2.60905 4.74178 2.60905C3.19828 2.60905 2.96278 3.81539 2.96278 5.0605V9.78111H0V0.236834Z" transform="translate(7.79346 7.26099)" fill="white"/>
</svg>
