<svg width="340" height="336" viewBox="0 0 340 336" fill="none" xmlns="http://www.w3.org/2000/svg">
<mask id="mask0" mask-type="alpha" maskUnits="userSpaceOnUse" x="0" y="0" width="340" height="336">
<rect width="340" height="336" fill="#C4C4C4"/>
</mask>
<g mask="url(#mask0)">
<path fill-rule="evenodd" clip-rule="evenodd" d="M55.0658 81.5943C55.066 37.0834 91.1491 1.00019 135.66 1.00003C180.171 1.00041 216.254 37.0835 216.254 81.5943C216.254 126.105 180.171 162.189 135.66 162.189C91.1491 162.189 55.0659 126.105 55.0658 81.5943ZM135.66 0C90.597 0.000264501 54.0659 36.5311 54.0657 81.5942C54.0659 126.658 90.5969 163.189 135.66 163.189C180.723 163.189 217.254 126.658 217.254 81.5945C217.255 36.5313 180.723 0.000122684 135.66 0ZM135.657 199.617C99.6784 199.617 65.1737 213.909 39.7331 239.35C14.2924 264.791 -1.18093e-05 299.296 0 335.274C6.22416e-05 335.407 0.0525628 335.534 0.146392 335.627C0.240143 335.721 0.367294 335.774 0.499931 335.774L270.814 335.774C270.947 335.774 271.074 335.721 271.167 335.628C271.261 335.534 271.314 335.406 271.314 335.274C271.314 299.296 257.022 264.79 231.581 239.35C206.14 213.909 171.635 199.617 135.657 199.617ZM40.4402 240.057C65.693 214.804 99.9436 200.617 135.657 200.617C171.37 200.617 205.621 214.804 230.874 240.057C256.009 265.192 270.181 299.241 270.313 334.774L1.00092 334.774C1.13251 299.241 15.3049 265.192 40.4402 240.057Z" transform="translate(169.905 29.2451) rotate(18.2617)" fill="url(#paint0_linear)"/>
</g>
<defs>
<linearGradient id="paint0_linear" x2="1" gradientUnits="userSpaceOnUse" gradientTransform="translate(-7.47947 9.79755) scale(271.314 335.774) rotate(-3.25309)">
<stop stop-color="#2F80ED"/>
<stop offset="1" stop-color="#249BDF"/>
</linearGradient>
</defs>
</svg>
