<svg width="340" height="327" viewBox="0 0 340 327" fill="none" xmlns="http://www.w3.org/2000/svg">
<mask id="mask0" mask-type="alpha" maskUnits="userSpaceOnUse" x="0" y="0" width="340" height="327">
<rect width="340" height="327" fill="#C4C4C4"/>
</mask>
<g mask="url(#mask0)">
<path d="M0 334.774V0" transform="translate(292.143 78.7339) rotate(18.2617)" stroke="#2F80ED" stroke-miterlimit="10" stroke-linecap="round" stroke-linejoin="round"/>
<path d="M0 0H299.169" transform="translate(97.6387 190.816) rotate(18.2617)" stroke="#2F80ED" stroke-miterlimit="10" stroke-linecap="round" stroke-linejoin="round"/>
<path d="M167.387 0C119.562 35.8687 47.8249 59.7811 0 59.7811C0 171.369 55.7997 286.949 167.387 334.774C278.975 286.949 334.774 171.369 334.774 59.7811C286.949 59.7811 215.212 35.8687 167.387 0Z" transform="translate(133.186 26.2817) rotate(18.2617)" stroke="#2F80ED" stroke-miterlimit="10" stroke-linecap="round" stroke-linejoin="round"/>
</g>
</svg>
