<svg width="16" height="15" viewBox="0 0 16 15" fill="none" xmlns="http://www.w3.org/2000/svg">
<path d="M6.53125 5.79688C6.42708 6.00521 6.26042 6.125 6.03125 6.15625L2.76562 6.64062L5.125 8.9375C5.29167 9.10417 5.35938 9.30208 5.32812 9.53125L4.76562 12.7812L7.6875 11.25C7.89583 11.1458 8.10417 11.1458 8.3125 11.25L11.2344 12.7812L10.6719 9.53125C10.6406 9.30208 10.7083 9.10417 10.875 8.9375L13.2344 6.64062L9.96875 6.15625C9.73958 6.125 9.57292 6.00521 9.46875 5.79688L8 2.84375L6.53125 5.79688ZM7.40625 1.03125C7.45833 0.916667 7.53646 0.828125 7.64062 0.765625C7.75521 0.703125 7.875 0.671875 8 0.671875C8.125 0.671875 8.23958 0.703125 8.34375 0.765625C8.45833 0.828125 8.54167 0.916667 8.59375 1.03125L10.5 4.89062L14.7656 5.51562C14.8906 5.53646 15 5.58854 15.0938 5.67188C15.1875 5.74479 15.2552 5.84375 15.2969 5.96875C15.3385 6.09375 15.3438 6.21875 15.3125 6.34375C15.2812 6.45833 15.2188 6.5625 15.125 6.65625L12.0469 9.65625L12.7812 13.8906C12.8021 14.0156 12.7865 14.1354 12.7344 14.25C12.6927 14.3646 12.6198 14.4583 12.5156 14.5312C12.4115 14.6146 12.2969 14.6562 12.1719 14.6562C12.0469 14.6667 11.9271 14.6458 11.8125 14.5938L8 12.5938L4.1875 14.5938C4.07292 14.6458 3.95312 14.6667 3.82812 14.6562C3.70312 14.6562 3.58854 14.6146 3.48438 14.5312C3.38021 14.4583 3.30208 14.3646 3.25 14.25C3.20833 14.1354 3.19792 14.0156 3.21875 13.8906L3.95312 9.65625L0.875 6.65625C0.78125 6.5625 0.71875 6.45833 0.6875 6.34375C0.65625 6.21875 0.661458 6.09375 0.703125 5.96875C0.744792 5.84375 0.8125 5.74479 0.90625 5.67188C1 5.58854 1.10938 5.53646 1.23438 5.51562L5.5 4.89062L7.40625 1.03125Z" fill="#60676E"/>
</svg>
